{
	"WORK_DIR": "/home/adrien/tmp/geodatamine",
	"PBF_URL": "http://download.openstreetmap.fr/extracts/europe/france/bretagne/ille_et_vilaine-latest.osm.pbf",
	"PARALLEL_JOBS": "6",
	"BOUNDARY": { "name": "Ille-et-Vilaine", "ref": "35", "id": "35"},

	"PG_HOST": "localhost",
	"PG_USER": "postgres",
	"PG_PORT": "5432",
	"PG_DB_CLEAN": "geodatamine",
	"PG_DB_TMP": "geodatamine_next",
	"PG_DB_OLD": "geodatamine_prev",

	"CACHE_MEM": 10000,
	"FLAT_NODES": false,

	"LICENSE": "Données © les contributeurs d’OpenStreetMap, sous licence Open Database License\nLa licence complète est disponible à cette adresse : https://www.openstreetmap.org/copyright"
}
